%YAML 1.1
%TAG !u! tag:unity3d.com,2011:
--- !u!114 &1
MonoBehaviour:
  m_ObjectHideFlags: 53
  m_CorrespondingSourceObject: {fileID: 0}
  m_PrefabInstance: {fileID: 0}
  m_PrefabAsset: {fileID: 0}
  m_GameObject: {fileID: 0}
  m_Enabled: 1
  m_EditorHideFlags: 0
  m_Script: {fileID: 11500000, guid: bc3a27147f944790916176e2172ad506, type: 3}
  m_Name: 
  m_EditorClassIdentifier: 
  lastWriteTicks: -8584852251997210729
  manifestJsonLastWriteTicks: -8584852527379732589
